…
We also edit the `species` layer to only keep one column with the
`sp_id`. The reason is that CNN want numbers.

``` r
species <- species %>%
 transmute(sp_id = as.numeric(as.factor(Label))) # we keep only one column with species numbers IDs
species # we inspect it
```

    ## Simple feature collection with 674 features and 1 field
    ## Geometry type: MULTIPOLYGON
    ## Dimension:     XY
    ## Bounding box:  xmin: 577075.2 ymin: 5093131 xmax: 577189.8 ymax: 5093257
    ## Projected CRS: WGS 84 / UTM zone 18N
    ## # A tibble: 674 × 2
    ##    sp_id                                                                    geom
    ##  * <dbl>                                                      <MULTIPOLYGON [m]>
    ##  1     8 (((577075.2 5093253, 577075.2 5093254, 577075.3 5093254, 577075.4 5093…
    ##  2     7 (((577075.2 5093252, 577075.2 5093253, 577075.5 5093253, 577075.6 5093…
    ##  3    16 (((577081.6 5093256, 577081.6 5093256, 577081.7 5093256, 577081.8 5093…
    ##  4    11 (((577077.9 5093257, 577082.3 5093257, 577082.3 5093256, 577082.3 5093…
    ##  5     8 (((577075.2 5093248, 577075.2 5093252, 577075.4 5093252, 577076.1 5093…
    ##  6     3 (((577083.6 5093248, 577083.8 5093248, 577083.8 5093248, 577083.8 5093…
    ##  7     1 (((577077.3 5093244, 577077 5093244, 577077 5093244, 577076.8 5093245,…
    ##  8     7 (((577075.2 5093245, 577075.2 5093248, 577075.3 5093248, 577075.5 5093…
    ##  9     4 (((577075.2 5093242, 577075.2 5093242, 577075.3 5093242, 577075.3 5093…
    ## 10     8 (((577075.2 5093239, 577075.2 5093241, 577075.3 5093241, 577075.5 5093…
    ## # … with 664 more rows
…
